…
``` r
# Stratify the returns by high and low volatility of the UDS ZAR and compare ALSI and SWIX
usdzar
```

    ## # A tibble: 8,305 × 3
    ##    date       Name             Price
    ##    <date>     <chr>            <dbl>
    ##  1 1990-01-01 SouthAfrica_Cncy  2.55
    ##  2 1990-01-02 SouthAfrica_Cncy  2.57
    ##  3 1990-01-03 SouthAfrica_Cncy  2.58
    ##  4 1990-01-04 SouthAfrica_Cncy  2.53
    ##  5 1990-01-05 SouthAfrica_Cncy  2.54
    ##  6 1990-01-08 SouthAfrica_Cncy  2.53
    ##  7 1990-01-09 SouthAfrica_Cncy  2.54
    ##  8 1990-01-10 SouthAfrica_Cncy  2.54
    ##  9 1990-01-11 SouthAfrica_Cncy  2.54
    ## 10 1990-01-12 SouthAfrica_Cncy  2.54
    ## # … with 8,295 more rows
…
